…
``` r
rest_inspec %>% 
  filter(
    str_detect(grade, "[ABC]",
               !(boro == "Missing"))) %>%
      mutate(boro = str_to_title(boro))
```

    ## Warning in stri_detect_regex(string, pattern, negate = negate, opts_regex =
    ## opts(pattern)): argument `negate` should be a single logical value; only the
    ## first element is used

    ## # A tibble: 7,448 × 18
    ##    action         boro   building  camis critical_flag cuisine_descrip… dba     
    ##    <chr>          <chr>  <chr>     <int> <chr>         <chr>            <chr>   
    ##  1 Violations we… Manha… 8        5.01e7 Critical      American         MADE NI…
    ##  2 Violations we… Manha… 488      4.16e7 Not Critical  Pizza            FAMOUS …
    ##  3 Establishment… Manha… 433      5.00e7 Not Critical  Delicatessen     FOOD FA…
    ##  4 Violations we… Manha… 240      5.00e7 Critical      American         ENTREE  
    ##  5 Violations we… Manha… 134      4.17e7 Critical      American         PIONEER…
    ##  6 Violations we… Manha… 1271     4.05e7 Not Critical  American         SPEEDY'…
    ##  7 Violations we… Manha… 53       4.04e7 Critical      Korean           HAN BAT…
    ##  8 Violations we… Manha… 122      4.14e7 Not Critical  American         THE AIN…
    ##  9 Violations we… Manha… 45       5.01e7 Critical      American         OSCAR W…
    ## 10 Violations we… Manha… 8        5.01e7 Critical      American         MADE NI…
    ## # … with 7,438 more rows, and 11 more variables: inspection_date <dttm>,
    ## #   inspection_type <chr>, phone <chr>, record_date <dttm>, score <int>,
    ## #   street <chr>, violation_code <chr>, violation_description <chr>,
    ## #   zipcode <int>, grade <chr>, grade_date <dttm>
…
